2.635401732254028389e+02
2.777282228469848491e+01
1.900843641281127816e+01
1.697019490242004380e+01
1.584088306427002024e+01
1.477051025390625050e+01
1.377222104072570730e+01
1.293015913009643469e+01
1.228539978981017988e+01
1.175345502853393498e+01
1.138155607223510657e+01
1.096972465515136719e+01
1.064252049446105985e+01
1.020708417892456055e+01
1.005958384513854931e+01
9.869033679962157635e+00
9.777291030883789702e+00
9.567446842193604084e+00
9.419399747848510529e+00
9.284564905166625692e+00
9.321823987960815572e+00
8.930551128387451243e+00
8.824781026840209819e+00
8.717554802894591504e+00
8.630181193351745605e+00
8.515487408638000133e+00
8.440221037864684916e+00
8.407293214797974201e+00
8.324467029571533061e+00
8.341937570571898775e+00
8.287501616477966238e+00
8.253205485343933390e+00
8.236428885459899263e+00
8.129181647300720570e+00
8.079572424888610271e+00
7.993666291236877441e+00
8.043449635505675488e+00
7.988702993392944762e+00
7.970528621673583558e+00
7.912901525497436417e+00
7.923452177047729528e+00
7.875032057762146209e+00
7.892848324775695978e+00
7.868168330192565563e+00
7.827737460136413361e+00
7.853450970649719309e+00
7.855574440956115900e+00
7.829550013542175613e+00
7.832729439735413024e+00
7.830393924713134446e+00
